[
  { "id": 1, "title": "banner 1", "url": "./Mocks/bannerMock/1.webp" },
  { "id": 2, "title": "banner 2", "url": "./Mocks/bannerMock/2.webp" },
  { "id": 3, "title": "banner 3", "url": "./Mocks/bannerMock/3.webp" },
  { "id": 4, "title": "banner 4", "url": "./Mocks/bannerMock/4.webp" },
  { "id": 5, "title": "banner 5", "url": "./Mocks/bannerMock/5.webp" }
]
